…
post <- loadPosterior(system.file("extdata", "marsupials_brownian.txt.Log.txt", package = "BTprocessR"))

print(post)
```

```
## Posterior of  500  samples
## 
##   Parameter   Median     Mean     Mode    SD
## 1        Lh -140.112 -139.772 -139.377 1.018
## 2   Alpha.1     2.13    2.127    2.071 0.388
## 3 Sigma.2.1    0.011    0.011    0.011 0.001
## 
## # A tibble: 500 x 5
##    Iteration    Lh Tree.No Alpha.1 Sigma.2.1
##        <dbl> <dbl>   <dbl>   <dbl>     <dbl>
##  1   1020000 -139.       1    1.84   0.0111 
##  2   1040000 -139.       1    2.38   0.0112 
##  3   1060000 -140.       1    2.18   0.00989
##  4   1080000 -139.       1    2.19   0.0110 
##  5   1100000 -139.       1    2.10   0.0113 
##  6   1120000 -140.       1    2.60   0.0104 
##  7   1140000 -141.       1    1.60   0.0122 
##  8   1160000 -140.       1    2.60   0.0110 
##  9   1180000 -139.       1    1.89   0.0103 
## 10   1200000 -140.       1    2.56   0.00985
## # … with 490 more rows
```
…
```r
print(post_trees)
```

```
## $tree_summaries
## 4 phylogenetic trees
## tree 1 : original_tree 246 tips
## tree 2 : mean_tree 246 tips
## tree 3 : median_tree 246 tips
## tree 4 : mode_tree 246 tips
## 
## $branchlength_info
## # A tibble: 490 x 6
##    original_bl mean_bl median_bl mode_bl range_bl   sd_bl
##          <dbl>   <dbl>     <dbl>   <dbl>    <dbl>   <dbl>
##  1         8.9  11.3         8.9   8.95     196.   13.5  
##  2         7.8  25.4         7.8   7.91    1159.   63.6  
##  3         2.1   6.82        2.1   2.27     232.   18.6  
##  4         0.1   0.338       0.1   0.116     13.4   0.984
##  5         9.5 106.         46.8  17.0     1241.  152.   
##  6         8.3  19.7         8.3   8.23     295.   32.7  
##  7        10.9  24.0        10.9  10.7      651.   42.3  
##  8        10.1  25.4        10.1   9.74     819.   56.0  
##  9         0     0           0     0          0     0    
## 10         0     0           0     0          0     0    
## # … with 480 more rows
## 
## attr(,"class")
## [1] "rj_trees" "list"
```
…
